{
  "project_info": {
    "project_number": "163697296568",
    "firebase_url": "https://fir-workplace.firebaseio.com",
    "project_id": "fir-workplace",
    "storage_bucket": "fir-workplace.appspot.com"
  },
  "client": [
    {
      "client_info": {
        "mobilesdk_app_id": "1:163697296568:android:d21fce9d9fb0860e8f604d",
        "android_client_info": {
          "package_name": "com.example.firebaseapp"
        }
      },
      "oauth_client": [
        {
          "client_id": "163697296568-5ip47329dao7hggaa40icfce4acbsq0t.apps.googleusercontent.com",
          "client_type": 3
        }
      ],
      "api_key": [
        {
          "current_key": "AIzaSyDgqaDH5lMkgRv0YbAzGpzJ-HgWS_LE1qw"
        }
      ],
      "services": {
        "appinvite_service": {
          "other_platform_oauth_client": [
            {
              "client_id": "163697296568-5ip47329dao7hggaa40icfce4acbsq0t.apps.googleusercontent.com",
              "client_type": 3
            }
          ]
        }
      }
    },
    {
      "client_info": {
        "mobilesdk_app_id": "1:163697296568:android:9226b3b46f1821ef8f604d",
        "android_client_info": {
          "package_name": "com.example.firebaseauthentication"
        }
      },
      "oauth_client": [
        {
          "client_id": "163697296568-ue37us9p0np3nej0h0jj7klhs4n86fcv.apps.googleusercontent.com",
          "client_type": 1,
          "android_info": {
            "package_name": "com.example.firebaseauthentication",
            "certificate_hash": "a264d462ede92bab40af0c3ad98ea391ffba0886"
          }
        },
        {
          "client_id": "163697296568-5ip47329dao7hggaa40icfce4acbsq0t.apps.googleusercontent.com",
          "client_type": 3
        }
      ],
      "api_key": [
        {
          "current_key": "AIzaSyDgqaDH5lMkgRv0YbAzGpzJ-HgWS_LE1qw"
        }
      ],
      "services": {
        "appinvite_service": {
          "other_platform_oauth_client": [
            {
              "client_id": "163697296568-5ip47329dao7hggaa40icfce4acbsq0t.apps.googleusercontent.com",
              "client_type": 3
            }
          ]
        }
      }
    },
    {
      "client_info": {
        "mobilesdk_app_id": "1:163697296568:android:eaa3dbb5fbcdce408f604d",
        "android_client_info": {
          "package_name": "com.example.firebasecrashlitycs"
        }
      },
      "oauth_client": [
        {
          "client_id": "163697296568-5ip47329dao7hggaa40icfce4acbsq0t.apps.googleusercontent.com",
          "client_type": 3
        }
      ],
      "api_key": [
        {
          "current_key": "AIzaSyDgqaDH5lMkgRv0YbAzGpzJ-HgWS_LE1qw"
        }
      ],
      "services": {
        "appinvite_service": {
          "other_platform_oauth_client": [
            {
              "client_id": "163697296568-5ip47329dao7hggaa40icfce4acbsq0t.apps.googleusercontent.com",
              "client_type": 3
            }
          ]
        }
      }
    }
  ],
  "configuration_version": "1"
}